{
  "preference": null,
  "pagination": {
    "total": 125841,
    "limit": 10,
    "offset": 0,
    "total_pages": 12585,
    "current_page": 1
  },
  "data": [
    {
      "_score": null,
      "is_public_domain": false,
      "date_start": 2023,
      "source_updated_at": "2023-11-28T14:11:26-06:00",
      "id": 269321,
      "title": "Friction Ridge Bench"
    },
    {
      "_score": null,
      "is_public_domain": false,
      "date_start": 2023,
      "source_updated_at": "2024-06-11T10:57:46-05:00",
      "id": 271890,
      "title": "La Grande Jatte"
    },
    {
      "_score": null,
      "is_public_domain": false,
      "date_start": 2023,
      "source_updated_at": "2024-06-13T11:51:41-05:00",
      "id": 269668,
      "title": "Beauty, Strength and Resilience – We Are Still Here"
    }
  ],
  "info": {
    "license_text": "The `description` field in this response is licensed under a Creative Commons Attribution 4.0 Generic License (CC-By) and the Terms and Conditions of artic.edu. All other data in this response is licensed under a Creative Commons Zero (CC0) 1.0 designation and the Terms and Conditions of artic.edu.",
    "license_links": ["https://creativecommons.org/publicdomain/zero/1.0/", "https://www.artic.edu/terms"],
    "version": "1.10"
  },
  "config": {
    "iiif_url": "https://www.artic.edu/iiif/2",
    "website_url": "http://www.artic.edu"
  }
}
